{
  "config": {
    "theme": "light"
  },
  "products": [
    {
      "id": 1,
      "title": "Nutella",
      "price": 20,
      "visibility": true,
      "categoryID": 1
    },
    {
      "title": "Milk",
      "price": 10,
      "visibility": true,
      "id": 2,
      "categoryID": 2
    },
    {
      "title": "e2fewfwe",
      "price": 22,
      "categoryID": 1,
      "visibility": true,
      "id": 3
    }
  ],
  "users": [
    {
      "name": "User 1617875908253",
      "isAdmin": false,
      "id": 2
    },
    {
      "name": "User 1617875909130",
      "isAdmin": false,
      "id": 3
    },
    {
      "name": "User 1617875919661",
      "isAdmin": true,
      "id": 4
    },
    {
      "name": "User 1617875920212",
      "isAdmin": false,
      "id": 5
    },
    {
      "name": "User 1617876281282",
      "isAdmin": false,
      "id": 6
    },
    {
      "name": "User 1617888283307",
      "isAdmin": false,
      "id": 7
    },
    {
      "name": "User 1617888283476",
      "isAdmin": false,
      "id": 8
    },
    {
      "name": "User 1617888291350",
      "isAdmin": false,
      "id": 9
    },
    {
      "name": "User 1617888292068",
      "isAdmin": false,
      "id": 10
    }
  ]
}